{
    "contacts": [
        {
            "matrix_id": "@luca:z3ntu.xyz",
            "email_address": "luca@z3ntu.xyz",
            "role": "m.role.admin"
        },
        {
            "matrix_id": "@ollieparanoid:postmarketos.org",
            "role": "m.role.admin"
        },
        {
            "matrix_id": "@craftyguy:postmarketos.org",
            "role": "m.role.admin"
        }
    ]
}
